<svg width="23" height="25" viewBox="0 0 23 25" fill="none" xmlns="http://www.w3.org/2000/svg">
<path d="M19.8086 11.2169C20.8086 11.7943 20.8086 13.2376 19.8086 13.815L4.05955 22.9077C3.05955 23.4851 1.80956 22.7634 1.80956 21.6087V3.42324C1.80956 2.26855 3.05955 1.54686 4.05956 2.12421L19.8086 11.2169Z" stroke="white" stroke-width="3"/>
</svg>
